<svg id="misi" xmlns="http://www.w3.org/2000/svg" xmlns:xlink="http://www.w3.org/1999/xlink" width="80" height="80" viewBox="0 0 80 80">
  <defs>
    <clipPath id="clip-path">
      <rect id="Rectangle_3527" data-name="Rectangle 3527" width="72.964" height="73.463" fill="#fff"/>
    </clipPath>
  </defs>
  <g id="Group_254" data-name="Group 254">
    <g id="Group_246" data-name="Group 246" transform="translate(4 3)" clip-path="url(#clip-path)">
      <path id="Path_383" data-name="Path 383" d="M776.955,412.657l-8.993,8.994H757.543l-1.644,1.643-6.252,6.253-3.894,3.9-3.295,3.295a2.522,2.522,0,0,1-3.623-.057,2.593,2.593,0,0,1,.129-3.587l7.057-7.057,6.278-6.28,1.676-1.674v-10.42l3.11-3.108,5.883-5.885a2.614,2.614,0,0,1,.244-.21c.019-.015.04-.029.06-.044a2.067,2.067,0,0,1,.256-.159.162.162,0,0,1,.021-.01,2,2,0,0,1,.253-.108l.063-.023a2.242,2.242,0,0,1,.275-.07c.013,0,.026,0,.038-.007.083-.012.167-.021.25-.026.022,0,.043,0,.063,0a2.576,2.576,0,0,1,.279.01l.045.007a2.129,2.129,0,0,1,.237.043l.065.015a2.658,2.658,0,0,1,.263.084c.012,0,.024.012.037.017a2.282,2.282,0,0,1,.22.107c.021.011.04.021.06.033a2.614,2.614,0,0,1,.231.153l.026.023a2.424,2.424,0,0,1,.187.165c.018.017.035.034.05.052a2,2,0,0,1,.182.215.161.161,0,0,0,.014.02,2.545,2.545,0,0,1,.139.224c.012.023.023.043.034.066a2.376,2.376,0,0,1,.115.271.1.1,0,0,1,0,.014,2.036,2.036,0,0,1,.072.28c.005.025.008.053.013.079a2.557,2.557,0,0,1,.032.317l.18,8.447.181,0,8.264.177a2.3,2.3,0,0,1,1.513.624,2.228,2.228,0,0,1,.383.5,2.366,2.366,0,0,1,.234.581,2.2,2.2,0,0,1-.593,2.123Zm-36.727,3.028a20,20,0,1,0,18.439,12.307l-7.22,7.22c.006.15.017.3.017.45a11.237,11.237,0,1,1-11.3-11.234l7.36-7.361a19.831,19.831,0,0,0-7.294-1.382Zm31.468,9.7a5.286,5.286,0,0,1-3.734,1.547h-4.039a25.294,25.294,0,1,1-15.229-15.056v-4.211a5.281,5.281,0,0,1,1.547-3.733l1.671-1.67a35.4,35.4,0,1,0,21.579,21.33Zm0,0" transform="translate(-704.84 -398.01)" fill="#fff"/>
    </g>
  </g>
  <rect id="Rectangle_3535" data-name="Rectangle 3535" width="80" height="80" fill="#fff" opacity="0"/>
</svg>
