<svg id="visi" xmlns="http://www.w3.org/2000/svg" width="80" height="80" viewBox="0 0 80 80">
  <path id="Path_387" data-name="Path 387" d="M554.479,442.848c0-2.845-.061-5.692.03-8.535a20.656,20.656,0,0,1,.639-3.223,19.052,19.052,0,0,0,.363-2.162,39.28,39.28,0,0,1,.243-4.131,8.658,8.658,0,0,1,16.252-2.065,15.05,15.05,0,0,0,3.047,4.493,12.017,12.017,0,0,1,2.337,3.74c1.751,4.066,3.355,8.194,5.041,12.288a3.32,3.32,0,0,0,.773,1.1c5.3,5.036,7.248,11.151,5.267,18.177-2,7.094-6.9,11.408-14.147,12.735a17.718,17.718,0,0,1-20.368-13.724c-.13-.584-.341-.735-.9-.727-1.922.03-3.845.025-5.768,0-.488-.005-.7.117-.812.641a17.819,17.819,0,0,1-35.223-4.6,17.617,17.617,0,0,1,5.951-12.493,3.188,3.188,0,0,0,.775-1.1q2.511-6.106,4.97-12.235a12.5,12.5,0,0,1,3.866-5.263,2.724,2.724,0,0,0,.6-.861,27.2,27.2,0,0,1,2.122-3.884,8.471,8.471,0,0,1,9.364-2.689,8.647,8.647,0,0,1,5.956,7.811c0,.051.009.1.008.153a17.27,17.27,0,0,0,.8,6.34,10.186,10.186,0,0,1,.31,3.272c.03,5.1-.011,10.2.043,15.3a14.521,14.521,0,0,0,.529,2.927c.03.135.33.3.508.3,2.1.02,4.2.025,6.306-.006a.723.723,0,0,0,.537-.435,27.867,27.867,0,0,0,.522-3.775c.08-2.458.023-4.921.023-7.382Zm-13.93,14.729a11.5,11.5,0,1,0-11.3,11.49A11.452,11.452,0,0,0,540.549,457.578Zm30.813-11.513a11.5,11.5,0,1,0,11.494,11.561A11.459,11.459,0,0,0,571.362,446.065Z" transform="translate(-510.23 -406.887)" fill="#fff"/>
  <rect id="Rectangle_3534" data-name="Rectangle 3534" width="80" height="80" fill="#fff" opacity="0"/>
</svg>
